"Data","Dia","Mês","Ano","Origem","Valor","Quem?","Categoria","Nota Fiscal","Mês de início","Valor do projeto","Nº de parcelas","Nº de parcelas pagas","Valor recebido","Valor a Receber"
2022-01-03,"3","1","2022","Banco",525,"PF22001","Projeto","Sim","Janeiro",1050,2,2,1050,0
2022-01-24,"24","1","2022","Banco",371.25,"PJ22004","Projeto","Sim","Janeiro",1485,4,1,371.25,1113.75
2022-01-24,"24","1","2022","Banco",200,"PF22005","Projeto","Não","Janeiro",400,2,2,400,0
2022-01-31,"31","1","2022","Banco",936.31,"PF22002","Projeto","Sim","Janeiro",936.31,1,1,936.31,0
2022-02-03,"3","2","2022","Banco",525,"PF22001","Projeto","Sim","Janeiro",1050,2,2,1050,0
2022-02-09,"9","2","2022","Banco",2098.19,"PJ22007","Projeto","Sim","Fevereiro",10490.95,5,3,6294.57,4196.38
2022-02-15,"15","2","2022","Banco",260,"PF22006","Projeto","Sim","Fevereiro",780,3,3,780,0
2022-02-15,"15","2","2022","Banco",3545,"PJ22008","Projeto","Sim","Fevereiro",3545,1,1,3545,0
2022-02-23,"23","2","2022","Banco",200,"PF22005","Projeto","Não","Janeiro",400,2,2,400,0
2022-02-26,"26","2","2022","Banco",645.18,"PF22013","Projeto","Sim","Fevereiro",1290.36,2,1,645.18,645.18
2022-02-26,"26","2","2022","Banco",150,"PF22014","Projeto","Sim","Fevereiro",450,3,3,450,0
2022-02-28,"28","2","2022","Banco",294.6,"PF22010","Projeto","Não","Fevereiro",883.8,3,1,294.6,589.2
2022-02-28,"28","2","2022","Banco",402.472,"PF22012","Projeto","Sim","Fevereiro",2012.36,5,2,804.944,1207.416
2022-03-01,"1","3","2022","Banco",260,"PF22006","Projeto","Sim","Fevereiro",780,3,3,780,0
2022-03-04,"4","3","2022","Banco",150,"PF22014","Projeto","Sim","Fevereiro",450,3,3,450,0
2022-03-11,"11","3","2022","Banco",1300,"PJ22015","Projeto","Sim","Março",1300,1,1,1300,0
2022-03-17,"17","3","2022","Banco",262.0133333,"PF22018","Projeto","Não","Março",786.04,3,1,262.0133333,524.0266667
2022-03-17,"17","3","2022","Banco",2098.19,"PJ22007","Projeto","Sim","Fevereiro",10490.95,5,3,6294.57,4196.38
2022-03-24,"24","3","2022","Banco",402.472,"PF22012","Projeto","Sim","Fevereiro",2012.36,5,2,804.944,1207.416
2022-03-29,"29","3","2022","Banco",107.375,"PF22019","Projeto","Não","Março",214.75,2,2,214.75,0
2022-03-31,"31","3","2022","Banco",837.65,"PJ22020","Projeto","Sim","Março",837.65,1,1,837.65,0
2022-04-02,"2","4","2022","Banco",260,"PF22006","Projeto","Sim","Fevereiro",780,3,3,780,0
2022-04-02,"2","4","2022","Banco",150,"PF22014","Projeto","Não","Fevereiro",450,3,3,450,0
2022-04-11,"11","4","2022","Banco",107.375,"PF22019","Projeto","Sim","Março",214.75,2,2,214.75,0
2022-04-19,"19","4","2022","Banco",2098.19,"PJ22007","Projeto","Sim","Fevereiro",10490.95,5,3,6294.57,4196.38
2022-04-22,"22","4","2022","Banco",359.4166667,"PJ22022","Projeto","Sim","Abril",1078.25,3,2,718.8333333,359.4166667
2022-04-25,"25","4","2022","Banco",375,"PF22023","Projeto","Sim","Abril",750,2,2,750,0
2022-04-26,"26","4","2022","Banco",942,"PJ22026","Projeto","Sim","Abril",942,1,1,942,0
2022-04-27,"27","4","2022","Banco",540,"PF22024","Projeto","Sim","Abril",2160,4,3,1620,540
2022-04-30,"30","4","2022","Banco",1928.666667,"PF22027","Projeto","Sim","Abril",5786,3,2,3857.333333,1928.666667
2022-04-30,"30","4","2022","Banco",327.395,"PF22028","Projeto","Não","Abril",654.79,2,2,654.79,0
2022-05-03,"3","5","2022","Banco",359.4166667,"PJ22022","Projeto","Sim","Abril",1078.25,3,2,718.8333333,359.4166667
2022-05-12,"12","5","2022","Banco",375,"PF22023","Projeto","Sim","Abril",750,2,2,750,0
2022-05-12,"12","5","2022","Banco",540,"PF22024","Projeto","Sim","Abril",2160,4,3,1620,540
2022-05-21,"21","5","2022","Banco",213.6,"PJ22030","Projeto","Sim","Maio",427.2,2,1,213.6,213.6
2022-05-21,"21","5","2022","Banco",161.3333333,"PF22032","Projeto","Não","Maio",484,3,1,161.3333333,322.6666667
2022-05-26,"26","5","2022","Banco",1928.666667,"PF22027","Projeto","Sim","Abril",5786,3,2,3857.333333,1928.666667
2022-05-27,"27","5","2022","Banco",327.395,"PF22028","Projeto","Sim","Abril",654.79,2,2,654.79,0
2022-05-28,"28","5","2022","Banco",200,"PF22033","Projeto","Sim","Maio",200,1,1,200,0
2022-05-28,"28","5","2022","Banco",1380,"PF22035","Projeto","Não","Maio",1380,1,1,1380,0
2022-05-29,"29","5","2022","Banco",430,"PF22040","Projeto","Sim","Maio",430,1,1,430,0
2022-05-30,"30","5","2022","Banco",245,"PJ22036","Projeto","Sim","Maio",1225,5,1,245,980
